bnn_inference_on_fpga/bnn_inference_on_fpga.sim/sim_1/behav/xsim/bnn_top_tb.vcd
$date
   Wed Apr  2 16:51:23 2025
$end

$version
  2024.1
  $dumpfile ("bnn_top_tb.vcd") 
$end

$timescale
  1ps
$end

$scope module bnn_top_tb $end
$var reg 1 ! clk $end
$var reg 1 " reset $end
$var wire 4 # digit [3:0] $end
$var wire 7 $ segment [6:0] $end
$scope module uut $end
$var wire 1 % clk $end
$var wire 1 & reset $end
$var wire 4 # digit [3:0] $end
$var wire 7 $ segment [6:0] $end
$var wire 784 ' image_data [783:0] $end
$var wire 4 ( digit_internal [3:0] $end
$scope module image $end
$var reg 784 ) image_data [783:0] $end
$var integer 32 * i [31:0] $end
$upscope $end
$scope module inference $end
$var wire 1 % clk $end
$var wire 1 & reset $end
$var wire 784 ' image [783:0] $end
$var wire 4 ( digit [3:0] $end
$var reg 10 + addr1 [9:0] $end
$var wire 128 , dense_w0 [127:0] $end
$var wire 5 - thresh_w0 [4:0] $end
$var wire 7 . addr_thresh1 [6:0] $end
$var reg 7 / addr2 [6:0] $end
$var wire 64 0 dense_w1 [63:0] $end
$var wire 5 1 thresh_w1 [4:0] $end
$var wire 6 2 addr_thresh2 [5:0] $end
$var reg 6 3 addr3 [5:0] $end
$var wire 10 4 dense_w2 [9:0] $end
$var wire 5 5 thresh_w2 [4:0] $end
$var wire 4 6 addr_thresh3 [3:0] $end
$var reg 4 7 state [3:0] $end
$var reg 4 8 next_state [3:0] $end
$var reg 1 9 done_layer1 $end
$var reg 1 : done_layer2 $end
$var reg 1 ; done_output $end
$var reg 1 < done_argmax $end
$var reg 784 = image_reg [783:0] $end
$var reg 128 > layer1_out [127:0] $end
$var reg 64 ? layer2_out [63:0] $end
$var reg 4 @ predicted_digit [3:0] $end
$var reg 7 A neuron_idx1 [6:0] $end
$var reg 6 B neuron_idx2 [5:0] $end
$var reg 4 C neuron_idx3 [3:0] $end
$var reg 4 D max_index [3:0] $end
$var reg 4 E compare_idx [3:0] $end
$var reg 10 F max_value [9:0] $end
$var reg 10 G popcount [9:0] $end
$var reg 1 H image_bit $end
$var reg 1 I weight_bit $end
$var integer 32 J z [31:0] $end
$var integer 32 K i [31:0] $end
$scope module dense_layer1_weights $end
$var wire 10 L addr [9:0] $end
$var reg 128 M data [127:0] $end
$upscope $end
$scope module dense_layer1_thresh $end
$var wire 7 . addr [6:0] $end
$var reg 5 N data [4:0] $end
$upscope $end
$scope module dense_layer2_weights $end
$var wire 7 O addr [6:0] $end
$var reg 64 P data [63:0] $end
$upscope $end
$scope module dense_layer2_thresh $end
$var wire 6 2 addr [5:0] $end
$var reg 5 Q data [4:0] $end
$upscope $end
$scope module dense_layer3_weights $end
$var wire 6 R addr [5:0] $end
$var reg 10 S data [9:0] $end
$upscope $end
$scope module dense_layer3_thresh $end
$var wire 4 6 addr [3:0] $end
$var reg 5 T data [4:0] $end
$upscope $end
$upscope $end
$scope module digit_display $end
$var wire 4 # bcd [3:0] $end
$var reg 7 U segment [6:0] $end
$upscope $end
$upscope $end
$upscope $end
$enddefinitions $end

#0
$dumpvars
0!
1"
b0 #
b1 $
0%
1&
b110000000000000000000000000111000000000000000000000000011100000000000000000000000001110000000000000000000000000110000000000000000000000000110000000000000000000000000111000000000000000000000000111000000000000000000000000011000000000000000000000000011000000000000000000000000001100000000000000000000000001110000000000000000000000000110000000000000000000000000111000000000000000000000000011000000000000000000000000011000000000000000000000000001100000000000000000000000001111111111110000000000000000011111111111111100000000000000000000000011100000000000000000000000000000000000000000000000000000000000000000000000000000000000000000000000000000000000000000000000000000000000000000000000000000000000000000000000000000000000000000000000000000000000 '
b0 (
b110000000000000000000000000111000000000000000000000000011100000000000000000000000001110000000000000000000000000110000000000000000000000000110000000000000000000000000111000000000000000000000000111000000000000000000000000011000000000000000000000000011000000000000000000000000001100000000000000000000000001110000000000000000000000000110000000000000000000000000111000000000000000000000000011000000000000000000000000011000000000000000000000000001100000000000000000000000001111111111110000000000000000011111111111111100000000000000000000000011100000000000000000000000000000000000000000000000000000000000000000000000000000000000000000000000000000000000000000000000000000000000000000000000000000000000000000000000000000000000000000000000000000000000 )
b1100010000 *
b0 +
b10100001101110010100111111000110000111111011101101110101000101110110110110000010001000001100101101111001101000111111000100101100 ,
b0 -
b0 .
b0 /
b111100010100001000101000101011110101000101010100010110000101100 0
b0 1
b0 2
b0 3
b1011101000 4
b11111 5
b0 6
b0 7
b1 8
09
0:
0;
0<
b0 =
b0 >
b0 ?
b0 @
b0 A
b0 B
b0 C
b0 D
b0 E
b0 F
b0 G
xH
xI
bx J
b1010 K
b0 L
b10100001101110010100111111000110000111111011101101110101000101110110110110000010001000001100101101111001101000111111000100101100 M
b0 N
b0 O
b111100010100001000101000101011110101000101010100010110000101100 P
b0 Q
b0 R
b1011101000 S
b11111 T
b1 U
$end

#5000
1!
1%
b1010 K

#10000
0!
0"
0%
0&

#15000
1!
1%
b1 7
b10 8

#20000
0!
0%

#25000
1!
1%
b10 7
b110000000000000000000000000111000000000000000000000000011100000000000000000000000001110000000000000000000000000110000000000000000000000000110000000000000000000000000111000000000000000000000000111000000000000000000000000011000000000000000000000000011000000000000000000000000001100000000000000000000000001110000000000000000000000000110000000000000000000000000111000000000000000000000000011000000000000000000000000011000000000000000000000000001100000000000000000000000001111111111110000000000000000011111111111111100000000000000000000000011100000000000000000000000000000000000000000000000000000000000000000000000000000000000000000000000000000000000000000000000000000000000000000000000000000000000000000000000000000000000000000000000000000000000 =

#30000
0!
0%

#35000
1!
1%
b1 +
b111001010100000011100110000000000011000010111001100011001111011100100001001100001111110010001110011011101110001011000100001000 ,
b1 G
0H
0I
b1 L
b111001010100000011100110000000000011000010111001100011001111011100100001001100001111110010001110011011101110001011000100001000 M

#40000
0!
0%

#45000
1!
1%
b10 +
b11011000010000110010110010010011010100011110110101100000110101101010000010101011101101111011010001100010100100001111111010111000 ,
b10 G
b10 L
b11011000010000110010110010010011010100011110110101100000110101101010000010101011101101111011010001100010100100001111111010111000 M

#50000
0!
0%

#55000
1!
1%
b11 +
b10101001100000001011100111001010000001101110000111011111011001100100101011000001101110011010101010000000011111000011010001101001 ,
b11 G
b11 L
b10101001100000001011100111001010000001101110000111011111011001100100101011000001101110011010101010000000011111000011010001101001 M

#60000
0!
0%

#65000
1!
1%
b100 +
b110000100001111111001011111100010000110010100101000111101011001111101010101011101011100001110000010000001001110000001101000 ,
1I
b100 L
b110000100001111111001011111100010000110010100101000111101011001111101010101011101011100001110000010000001001110000001101000 M

#70000
0!
0%

#75000
1!
1%
b101 +
b111001110101000111001010011110001000001001011001110001010010101011011001111001010111001001000110010010101111101100110000011 ,
b100 G
0I
b101 L
b111001110101000111001010011110001000001001011001110001010010101011011001111001010111001001000110010010101111101100110000011 M

#80000
0!
0%

#85000
1!
1%
b110 +
b10001000010100111011100111001110110101010110010100011110010010000100111000111010011100101101011101011011010100111011110111010001 ,
1I
b110 L
b10001000010100111011100111001110110101010110010100011110010010000100111000111010011100101101011101011011010100111011110111010001 M

#90000
0!
0%

#95000
1!
1%
b111 +
b11101110000111010101010110010100000110111110100000101001011001101011111110101110011101011110000000001000001011011010111000101110 ,
b111 L
b11101110000111010101010110010100000110111110100000101001011001101011111110101110011101011110000000001000001011011010111000101110 M

#100000
0!
0%

#105000
1!
1%
b1000 +
b10101101000110001111111000101000000000100100011001000010000000000110100111011101011000010101100100011110000010011100000000001101 ,
b101 G
0I
b1000 L
b10101101000110001111111000101000000000100100011001000010000000000110100111011101011000010101100100011110000010011100000000001101 M

#110000
0!
0%

#115000
1!
1%
b1001 +
b110001100010111011110101010010010011011101010011111010011110001101101011000111101010000000111000100000111000111010010000001000 ,
1I
b1001 L
b110001100010111011110101010010010011011101010011111010011110001101101011000111101010000000111000100000111000111010010000001000 M

#120000
0!
0%

#125000
1!
1%
b1010 +
b10001001001110100001011000001110101100010111010010100001011011001010101011100011001111111010000111100000100011000100101110011001 ,
b110 G
0I
b1010 L
b10001001001110100001011000001110101100010111010010100001011011001010101011100011001111111010000111100000100011000100101110011001 M

#130000
0!
0%

#135000
1!
1%
b1011 +
b11100000110000111000100101101101110011001000111010001101101000001100011001100000001000000100110011000110100110100000111101110110 ,
1I
b1011 L
b11100000110000111000100101101101110011001000111010001101101000001100011001100000001000000100110011000110100110100000111101110110 M

#140000
0!
0%

#145000
1!
1%
b1100 +
b11000001101010110110101010111110110000100000100110111001101011001111110111110101001100010110011010011001000100100101100010110 ,
b111 G
0I
b1100 L
b11000001101010110110101010111110110000100000100110111001101011001111110111110101001100010110011010011001000100100101100010110 M

#150000
0!
0%

#155000
1!
1%
b1101 +
b1111001111010101110101000010011110001101010101000001011100101000110110101001101110011111000110110001110100110100000000011101110 ,
b1000 G
b1101 L
b1111001111010101110101000010011110001101010101000001011100101000110110101001101110011111000110110001110100110100000000011101110 M

#160000
0!
0%

#165000
1!
1%
b1110 +
b1100010011011101111100011000111000110111110010100010111111001100111010111100110110111011100110010001111110110000000010110001111 ,
b1001 G
b1110 L
b1100010011011101111100011000111000110111110010100010111111001100111010111100110110111011100110010001111110110000000010110001111 M

#170000
0!
0%

#175000
1!
1%
b1111 +
b10000000100111001110101100100100000000001100011010111100100111010111010100100100101110011010011110001110110111101111010010111110 ,
1I
b1111 L
b10000000100111001110101100100100000000001100011010111100100111010111010100100100101110011010011110001110110111101111010010111110 M

#180000
0!
0%

#185000
1!
1%
b10000 +
b11110000000111111001001111111001101010000100111100110110100011110100110111010000111001000000110101110111111111000011100101110111 ,
b1010 G
0I
b10000 L
b11110000000111111001001111111001101010000100111100110110100011110100110111010000111001000000110101110111111111000011100101110111 M

#190000
0!
0%

#195000
1!
1%
b10001 +
b10101011110000100101101001000010111110111111101101110100011011011101011101110100001101100010110110111011111000111001000010001101 ,
1I
b10001 L
b10101011110000100101101001000010111110111111101101110100011011011101011101110100001101100010110110111011111000111001000010001101 M

#200000
0!
0%

#205000
1!
1%
b10010 +
b110011110000110000000110101110111000000111111011110111001000100111001011001100001000001101101001010000100000101000110110100000 ,
b10010 L
b110011110000110000000110101110111000000111111011110111001000100111001011001100001000001101101001010000100000101000110110100000 M

#210000
0!
0%

#215000
1!
1%
b10011 +
b111111101000000011010110011110100100000010111100000010111001010101101010100000100101111111000101110000110110001000111000110000 ,
b1011 G
0I
b10011 L
b111111101000000011010110011110100100000010111100000010111001010101101010100000100101111111000101110000110110001000111000110000 M

#220000
0!
0%

#225000
1!
1%
b10100 +
b10111110010000110101111111011000111110101100100000000011000101110101011010011000101101001111100101111000101010000110000010100 ,
b1100 G
b10100 L
b10111110010000110101111111011000111110101100100000000011000101110101011010011000101101001111100101111000101010000110000010100 M

#230000
0!
0%

#235000
1!
1%
b10101 +
b11111001111000010011011100001101011101111110111100011011111000011000000110101100000000100110101011001110000001111111101000100100 ,
b1101 G
b10101 L
b11111001111000010011011100001101011101111110111100011011111000011000000110101100000000100110101011001110000001111111101000100100 M

#240000
0!
0%

#245000
1!
1%
b10110 +
b11101100001111011001100111011100110010110000010110101010010000100001101010011011101010011100100010100101110001111111100001111111 ,
b1110 G
b10110 L
b11101100001111011001100111011100110010110000010110101010010000100001101010011011101010011100100010100101110001111111100001111111 M

#250000
0!
0%

#255000
1!
1%
b10111 +
b11001110011010000110001001001110001001010010111011011111110101101101100000110111001111001011101011110001011000011101011101101111 ,
1I
b10111 L
b11001110011010000110001001001110001001010010111011011111110101101101100000110111001111001011101011110001011000011101011101101111 M

#260000
0!
0%

#265000
1!
1%
b11000 +
b10100010100101000110100100010110010101000011111000000111110111101010011001100011000101111101000000000000111111011101000110100010 ,
b11000 L
b10100010100101000110100100010110010101000011111000000111110111101010011001100011000101111101000000000000111111011101000110100010 M

#270000
0!
0%

#275000
1!
1%
b11001 +
b11000010000111111110001000000111011000111001101111100011000001001011001010101000111000011101011110110110101110010111010001001011 ,
b1111 G
0I
b11001 L
b11000010000111111110001000000111011000111001101111100011000001001011001010101000111000011101011110110110101110010111010001001011 M

#280000
0!
0%

#285000
1!
1%
b11010 +
b111000001111100100101100101110000100001100100011100010101010100101101010100010100100000110011101010110110000111110010110011111 ,
1I
b11010 L
b111000001111100100101100101110000100001100100011100010101010100101101010100010100100000110011101010110110000111110010110011111 M

#290000
0!
0%

#295000
1!
1%
b11011 +
b1111110101110010010011101111110000110101100110010110001100111010111000000101101011101101100010110111111011110100111001111000010 ,
b11011 L
b1111110101110010010011101111110000110101100110010110001100111010111000000101101011101101100010110111111011110100111001111000010 M

#300000
0!
0%

#305000
1!
1%
b11100 +
b10000110100010101001111010101101100110010110011010011001001001011010100110110001111111001001101100111100010000011101001100100 ,
b10000 G
0I
b11100 L
b10000110100010101001111010101101100110010110011010011001001001011010100110110001111111001001101100111100010000011101001100100 M

#310000
0!
0%

#315000
1!
1%
b11101 +
b1111010000000000010100101011100110001110110100100001000011010110110011001010110110000100010110001110010110001010010000010000010 ,
b10001 G
b11101 L
b1111010000000000010100101011100110001110110100100001000011010110110011001010110110000100010110001110010110001010010000010000010 M

#320000
0!
0%

#325000
1!
1%
b11110 +
b10010011010000100111010111010100100111010110100001101001001000010111100101111000111010111111111100111011001010101100010101001110 ,
b10010 G
b11110 L
b10010011010000100111010111010100100111010110100001101001001000010111100101111000111010111111111100111011001010101100010101001110 M

#330000
0!
0%

#335000
1!
1%
b11111 +
b11001101001011011111011001011110011111100110101010101001111111011111010010010001110110100010010111001100101100111011010110110100 ,
b10011 G
b11111 L
b11001101001011011111011001011110011111100110101010101001111111011111010010010001110110100010010111001100101100111011010110110100 M

#340000
0!
0%

#345000
1!
1%
b100000 +
b1101011100110010000001011011011010100100101010101111100110110001100011011111100011010011111101000100100100000100010010111001111 ,
b10100 G
b100000 L
b1101011100110010000001011011011010100100101010101111100110110001100011011111100011010011111101000100100100000100010010111001111 M

#350000
0!
0%

#355000
1!
1%
b100001 +
b10101111111100000111101101001011000111101111010010111110010111010001100010100111101010101000111010101101000110110000111010000011 ,
1I
b100001 L
b10101111111100000111101101001011000111101111010010111110010111010001100010100111101010101000111010101101000110110000111010000011 M

#360000
0!
0%

#365000
1!
1%
b100010 +
b1101111111101000101111110001110001001011110000101111111111011100011101010011110010011001110111101111100001100011101111101010 ,
b100010 L
b1101111111101000101111110001110001001011110000101111111111011100011101010011110010011001110111101111100001100011101111101010 M

#370000
0!
0%

#375000
1!
1%
b100011 +
b11001111010101101101110111110111001101010110000101011001101011110010111001101111010011001111111111110100111100000111101101110 ,
b10101 G
0I
b100011 L
b11001111010101101101110111110111001101010110000101011001101011110010111001101111010011001111111111110100111100000111101101110 M

#380000
0!
0%

#385000
1!
1%
b100100 +
b11001010101010001101101100011010110001010011110000111001100011011110000010000001111010010001011110101110101111110010100110101100 ,
b10110 G
b100100 L
b11001010101010001101101100011010110001010011110000111001100011011110000010000001111010010001011110101110101111110010100110101100 M

#390000
0!
0%

#395000
1!
1%
b100101 +
b10001001101111001100101101010010111001000011110010101101000011100010010011010101111010110011001110111110101101111010101101101010 ,
b10111 G
b100101 L
b10001001101111001100101101010010111001000011110010101101000011100010010011010101111010110011001110111110101101111010101101101010 M

#400000
0!
0%

#405000
1!
1%
b100110 +
b10001001111010101011101111111010110000100011110011101001110001010010001001011000011010010011000110111000101011111010101000101100 ,
b11000 G
b100110 L
b10001001111010101011101111111010110000100011110011101001110001010010001001011000011010010011000110111000101011111010101000101100 M

#410000
0!
0%

#415000
1!
1%
b100111 +
b1001001111010001001101100011010110001101011100000101101110101011111010001011000011010011011001110010000101011000000101101111100 ,
b11001 G
b100111 L
b1001001111010001001101100011010110001101011100000101101110101011111010001011000011010011011001110010000101011000000101101111100 M

#420000
0!
0%

#425000
1!
1%
b101000 +
b1001001111000001001101101111001111001111011110000101001110111010110000010011001011010011011111110110010101011100010101110111100 ,
b11010 G
b101000 L
b1001001111000001001101101111001111001111011110000101001110111010110000010011001011010011011111110110010101011100010101110111100 M

#430000
0!
0%

#435000
1!
1%
b101001 +
b1001001101000001001101111011010111001100011110000111001100111000110100000011001011010011011111110111010101011100010111100111110 ,
b11011 G
b101001 L
b1001001101000001001101111011010111001100011110000111001100111000110100000011001011010011011111110111010101011100010111100111110 M

#440000
0!
0%

#445000
1!
1%
b101010 +
b1001111101010101001101111110011111001100001010000001101000101100010100111001101011010011011110110111010100011101010111100101100 ,
b11100 G
b101010 L
b1001111101010101001101111110011111001100001010000001101000101100010100111001101011010011011110110111010100011101010111100101100 M

#450000
0!
0%

#455000
1!
1%
b101011 +
b11100100101010101111101101010010111001111011100010111000100001010010010111001111011011010011000110111010100001101010101100111110 ,
b11101 G
b101011 L
b11100100101010101111101101010010111001111011100010111000100001010010010111001111011011010011000110111010100001101010101100111110 M

#460000
0!
0%

#465000
1!
1%
b101100 +
b1101001101010001011101110010011010011110011110000101101101001100110000010010011011000011010000110101010110000101010110110101110 ,
b11110 G
b101100 L
b1101001101010001011101110010011010011110011110000101101101001100110000010010011011000011010000110101010110000101010110110101110 M

#470000
0!
0%

#475000
1!
1%
b101101 +
b1001001101100001000101111010010111000110011110000101000010101010010100000001101011010000011000101110010100001100010101010101110 ,
b11111 G
b101101 L
b1001001101100001000101111010010111000110011110000101000010101010010100000001101011010000011000101110010100001100010101010101110 M

#480000
0!
0%

#485000
1!
1%
b101110 +
b1001000111010001101101111010010111000100011110000101001100101010010000011011101111010011011000110111010100011111010101000110110 ,
b100000 G
b101110 L
b1001000111010001101101111010010111000100011110000101001100101010010000011011101111010011011000110111010100011111010101000110110 M

#490000
0!
0%

#495000
1!
1%
b101111 +
b10001001101010001000101101010110111001001011100000101001110111010010000011011001011010011011000110110010100001101011101000101110 ,
b100001 G
b101111 L
b10001001101010001000101101010110111001001011100000101001110111010010000011011001011010011011000110110010100001101011101000101110 M

#500000
0!
0%

#505000
1!
1%
b110000 +
b11001000101110001100101101111100011001100011110000101001110111010010010011011001011010011011000100111010100011111010101000101110 ,
b100010 G
b110000 L
b11001000101110001100101101111100011001100011110000101001110111010010010011011001011010011011000100111010100011111010101000101110 M

#510000
0!
0%

#515000
1!
1%
b110001 +
b1001101010001100101101010110111001000011100000111001100001010010010100011101011010011011100100111110101011011000101110111110 ,
b100011 G
b110001 L
b1001101010001100101101010110111001000011100000111001100001010010010100011101011010011011100100111110101011011000101110111110 M

#520000
0!
0%

#525000
1!
1%
b110010 +
b10001001111010101000101101011110111001100011110010101001110001010011100110001101011010011011100101111110001101001000101001111110 ,
b100100 G
b110010 L
b10001001111010101000101101011110111001100011110010101001110001010011100110001101011010011011100101111110001101001000101001111110 M

#530000
0!
0%

#535000
1!
1%
b110011 +
b1101001101010001001101101010001110000010011110011111111000011010010000001000101111010011001010101011010001101001110001110111100 ,
b100101 G
b110011 L
b1101001101010001001101101010001110000010011110011111111000011010010000001000101111010011001010101011010001101001110001110111100 M

#540000
0!
0%

#545000
1!
1%
b110100 +
b10010011000010001101011000000110101010100101000111110111001100001111000010001100111111101101010011111100000001110110101101000101 ,
b100110 G
b110100 L
b10010011000010001101011000000110101010100101000111110111001100001111000010001100111111101101010011111100000001110110101101000101 M

#550000
0!
0%

#555000
1!
1%
b110101 +
b1110111100101101000110010101110100010110001000011001111110101111110101011100011110011001001010101011100111101110100101110110001 ,
1I
b110101 L
b1110111100101101000110010101110100010110001000011001111110101111110101011100011110011001001010101011100111101110100101110110001 M

#560000
0!
0%

#565000
1!
1%
b110110 +
b11001101000110011001000100011011100001101101100011111101010011011000010000110111011011100101101100101110101101000000000101011011 ,
b110110 L
b11001101000110011001000100011011100001101101100011111101010011011000010000110111011011100101101100101110101101000000000101011011 M

#570000
0!
0%

#575000
1!
1%
b110111 +
b11101110000000111100010000110100010010001011011101101000100011110110100100001011100101000110110000000111001100011000101010 ,
b110111 L
b11101110000000111100010000110100010010001011011101101000100011110110100100001011100101000110110000000111001100011000101010 M

#580000
0!
0%

#585000
1!
1%
b111000 +
b10010110000000001010110000001101101101111110011000111001001101001101111010101011100001111011001101010110011110000100100100010111 ,
b100111 G
0I
b111000 L
b10010110000000001010110000001101101101111110011000111001001101001101111010101011100001111011001101010110011110000100100100010111 M

#590000
0!
0%

#595000
1!
1%
b111001 +
b10011100010001011111001001001111101001111000001011111001000111000011101010101000010101101010110001011001111000001111101001010010 ,
1I
b111001 L
b10011100010001011111001001001111101001111000001011111001000111000011101010101000010101101010110001011001111000001111101001010010 M

#600000
0!
0%

#605000
1!
1%
b111010 +
b1111011111111001000100010101111000100101110000101001111101111101110101101001111100101110000110111010110101110100001111111001000 ,
b101000 G
0I
b111010 L
b1111011111111001000100010101111000100101110000101001111101111101110101101001111100101110000110111010110101110100001111111001000 M

#610000
0!
0%

#615000
1!
1%
b111011 +
b11110110111001110101000111011001010010010011000100000110111111000110111110111000010000110011000101001101101000000011010000101011 ,
b101001 G
b111011 L
b11110110111001110101000111011001010010010011000100000110111111000110111110111000010000110011000101001101101000000011010000101011 M

#620000
0!
0%

#625000
1!
1%
b111100 +
b10001000101010001100101101000000111001001011110010101001010111010010011000011010011010110011100100110100101001110001101000111000 ,
1I
b111100 L
b10001000101010001100101101000000111001001011110010101001010111010010011000011010011010110011100100110100101001110001101000111000 M

#630000
0!
0%

#635000
1!
1%
b111101 +
b1010001000010110100001110001101000111100110010110001000101100011111000010110010010100110011111010101011111011101011110011111011 ,
b101010 G
0I
b111101 L
b1010001000010110100001110001101000111100110010110001000101100011111000010110010010100110011111010101011111011101011110011111011 M

#640000
0!
0%

#645000
1!
1%
b111110 +
b10001000001111001000101100000010111000100011100010101001110111010010000011011000011010100011000111010010101001110100101000100000 ,
1I
b111110 L
b10001000001111001000101100000010111000100011100010101001110111010010000011011000011010100011000111010010101001110100101000100000 M

#650000
0!
0%

#655000
1!
1%
b111111 +
b10001001101110001000101100011110111011100010111000101000100111011110000111011011001010010001111111110010100001111000101110101100 ,
b101011 G
0I
b111111 L
b10001001101110001000101100011110111011100010111000101000100111011110000111011011001010010001111111110010100001111000101110101100 M

#660000
0!
0%

#665000
1!
1%
b1000000 +
b10001010101011000000101110011010111001000010110001111011100001011110010111011111011010010001111111101010101011100010001010111110 ,
b101100 G
b1000000 L
b10001010101011000000101110011010111001000010110001111011100001011110010111011111011010010001111111101010101011100010001010111110 M

#670000
0!
0%

#675000
1!
1%
b1000001 +
b10011001101111001100101100111010111011100011110010101001110111010110000111011011011010110011001111110010101001111000101010101000 ,
b101101 G
b1000001 L
b10011001101111001100101100111010111011100011110010101001110111010110000111011011011010110011001111110010101001111000101010101000 M

#680000
0!
0%

#685000
1!
1%
b1000010 +
b10001001101110101000101111111110111001100011110000101001110111010111100011011001011010011011101111111010101011101000101001101000 ,
b101110 G
b1000010 L
b10001001101110101000101111111110111001100011110000101001110111010111100011011001011010011011101111111010101011101000101001101000 M

#690000
0!
0%

#695000
1!
1%
b1000011 +
b1011001101111001001101101011010111001000011110000111001100101000111000110011001011010011011001110111010101111101010100101101000 ,
b101111 G
b1000011 L
b1011001101111001001101101011010111001000011110000111001100101000111000110011001011010011011001110111010101111101010100101101000 M

#700000
0!
0%

#705000
1!
1%
b1000100 +
b1001001101111001000101111111010111001110011110000101001100111010011100111011001011010010011111110111010101001101000111100101000 ,
b110000 G
b1000100 L
b1001001101111001000101111111010111001110011110000101001100111010011100111011001011010010011111110111010101001101000111100101000 M

#710000
0!
0%

#715000
1!
1%
b1000101 +
b1001001101010101000101101011011111001100011100000101101100101010010100010011001011010010011110110111010100001101010111100101010 ,
b110001 G
b1000101 L
b1001001101010101000101101011011111001100011100000101101100101010010100010011001011010010011110110111010100001101010111100101010 M

#720000
0!
0%

#725000
1!
1%
b1000110 +
b11000101101100111001101111011010111001100011100010101100000101000010100011010101011010010011000111001010100001111010101000111010 ,
b110010 G
b1000110 L
b11000101101100111001101111011010111001100011100010101100000101000010100011010101011010010011000111001010100001111010101000111010 M

#730000
0!
0%

#735000
1!
1%
b1000111 +
b10001001101110111001101111111010111001110011100010101000110111000010100111010101011010010011001111110010101001101000101100111010 ,
b110011 G
b1000111 L
b10001001101110111001101111111010111001110011100010101000110111000010100111010101011010010011001111110010101001101000101100111010 M

#740000
0!
0%

#745000
1!
1%
b1001000 +
b1011101110111001101111011010111001110011110010101100110101000010100101010101001010010011001111010010101001101010101000101110 ,
b110100 G
b1001000 L
b1011101110111001101111011010111001110011110010101100110101000010100101010101001010010011001111010010101001101010101000101110 M

#750000
0!
0%

#755000
1!
1%
b1001001 +
b1100101110011001101111011010111001110011110010101100110101000010100111010011011010010011000110111010100001101010101100101110 ,
b110101 G
b1001001 L
b1100101110011001101111011010111001110011110010101100110101000010100111010011011010010011000110111010100001101010101100101110 M

#760000
0!
0%

#765000
1!
1%
b1001010 +
b11001000101100011001101111011010111001110011110010111100110101000010100011010101011010011011000110010010101001111010101000101110 ,
b110110 G
b1001010 L
b11001000101100011001101111011010111001110011110010111100110101000010100011010101011010011011000110010010101001111010101000101110 M

#770000
0!
0%

#775000
1!
1%
b1001011 +
b11001010101110011001101111010010111001110011110010111000110111110010100101010001011010000011000111110010101000110010101000101110 ,
b110111 G
b1001011 L
b11001010101110011001101111010010111001110011110010111000110111110010100101010001011010000011000111110010101000110010101000101110 M

#780000
0!
0%

#785000
1!
1%
b1001100 +
b10001010101111011001101111011010111001110011110111101100110101000010100011010011011110010011000111010010101000111110101000101110 ,
b111000 G
b1001100 L
b10001010101111011001101111011010111001110011110111101100110101000010100011010011011110010011000111010010101000111110101000101110 M

#790000
0!
0%

#795000
1!
1%
b1001101 +
b10001000101110011000101110011010111001010011110010111000110111010010100111010111011010010010000111110010011001111000101000101110 ,
b111001 G
b1001101 L
b10001000101110011000101110011010111001010011110010111000110111010010100111010111011010010010000111110010011001111000101000101110 M

#800000
0!
0%

#805000
1!
1%
b1001110 +
b10001101101111011000101111110010111001000011100010101110100111010010100011010101010010010010000101010010001001111000101000101010 ,
b111010 G
b1001110 L
b10001101101111011000101111110010111001000011100010101110100111010010100011010101010010010010000101010010001001111000101000101010 M

#810000
0!
0%

#815000
1!
1%
b1001111 +
b10001001101010001000111111011010101000100110110010101110100111110010100111100011010010011011000101011000001001111100101000100010 ,
b111011 G
b1001111 L
b10001001101010001000111111011010101000100110110010101110100111110010100111100011010010011011000101011000001001111100101000100010 M

#820000
0!
0%

#825000
1!
1%
b1010000 +
b1000101111010101001100111111000001000110011110010101100000000010011100111010011110010011011000001111010101001111000100110101010 ,
b111100 G
b1010000 L
b1000101111010101001100111111000001000110011110010101100000000010011100111010011110010011011000001111010101001111000100110101010 M

#830000
0!
0%

#835000
1!
1%
b1010001 +
b11010001111100110101100010000000011100110111000000101001001000001001100111001011100010111111000011101011101010100011110110001001 ,
b111101 G
b1010001 L
b11010001111100110101100010000000011100110111000000101001001000001001100111001011100010111111000011101011101010100011110110001001 M

#840000
0!
0%

#845000
1!
1%
b1010010 +
b10010010110101111010001011010110110111101010111110000011011100101110010110001000011001010101110010111000110010001110001111011010 ,
1I
b1010010 L
b10010010110101111010001011010110110111101010111110000011011100101110010110001000011001010101110010111000110010001110001111011010 M

#850000
0!
0%

#855000
1!
1%
b1010011 +
b1101101000000101110101100110000110111101100101001110011101000101100000001111001101111110100100000110110010011001010010111100100 ,
b111110 G
0I
b1010011 L
b1101101000000101110101100110000110111101100101001110011101000101100000001111001101111110100100000110110010011001010010111100100 M

#860000
0!
0%

#865000
1!
1%
b1010100 +
b11011100111001010110110001010100001010111011010011010001101101000111101101011001010111000101000110101100000110101100010100010 ,
b111111 G
b1010100 L
b11011100111001010110110001010100001010111011010011010001101101000111101101011001010111000101000110101100000110101100010100010 M

#870000
0!
0%

#875000
1!
1%
b1010101 +
b10001111101111010110100100011010010001111111000100010101011100110101010110111001101111000000011010001000011010110101010101010011 ,
b1000000 G
b1010101 L
b10001111101111010110100100011010010001111111000100010101011100110101010110111001101111000000011010001000011010110101010101010011 M

#880000
0!
0%

#885000
1!
1%
b1010110 +
b1011101111101101101110111110110101010010111100000111001100010100000010000101111011001011000000101010110110101011110100111100 ,
1I
b1010110 L
b1011101111101101101110111110110101010010111100000111001100010100000010000101111011001011000000101010110110101011110100111100 M

#890000
0!
0%

#895000
1!
1%
b1010111 +
b10110100011011111110011110001101011111000010010011010101100000110111010010011000100100101000110110000001100000010011100000100010 ,
b1000001 G
0I
b1010111 L
b10110100011011111110011110001101011111000010010011010101100000110111010010011000100100101000110110000001100000010011100000100010 M

#900000
0!
0%

#905000
1!
1%
b1011000 +
b101000111001101001000000001100111110101101100010011111011110011000100011111111011000111111010000100010000010000000101001100010 ,
b1000010 G
b1011000 L
b101000111001101001000000001100111110101101100010011111011110011000100011111111011000111111010000100010000010000000101001100010 M

#910000
0!
0%

#915000
1!
1%
b1011001 +
b1110110010000011011100011001001100110010000000000011111111000101000010101110111100011001110010110101010110000001110110011000101 ,
b1000011 G
b1011001 L
b1110110010000011011100011001001100110010000000000011111111000101000010101110111100011001110010110101010110000001110110011000101 M

#920000
0!
0%

#925000
1!
1%
b1011010 +
b10001100111100101110101111111010111011111010110010111001010110100010100111010010010010010110011111101010011000110001100000000000 ,
1I
b1011010 L
b10001100111100101110101111111010111011111010110010111001010110100010100111010010010010010110011111101010011000110001100000000000 M

#930000
0!
0%

#935000
1!
1%
b1011011 +
b10011001111111001001101100111101111011000010110000101000101101011000000111000111011010010011111111101010101000101000010100101000 ,
b1000100 G
0I
b1011011 L
b10011001111111001001101100111101111011000010110000101000101101011000000111000111011010010011111111101010101000101000010100101000 M

#940000
0!
0%

#945000
1!
1%
b1011100 +
b111001101001001001100110111010111011100010000000101100100011110100110111010011111010010011000111101011001101101010111100101100 ,
b1000101 G
b1011100 L
b111001101001001001100110111010111011100010000000101100100011110100110111010011111010010011000111101011001101101010111100101100 M

#950000
0!
0%

